<svg width="11" height="7" viewBox="0 0 11 7" fill="none" xmlns="http://www.w3.org/2000/svg">
<path d="M10.365 0.735552C10.2897 0.660181 10.2002 0.600389 10.1018 0.559594C10.0034 0.5188 9.89789 0.497803 9.79134 0.497803C9.6848 0.497803 9.5793 0.5188 9.48087 0.559594C9.38245 0.600389 9.29302 0.660181 9.21772 0.735552L5.59938 4.35389C5.57909 4.37406 5.55163 4.38539 5.52301 4.38539C5.49439 4.38539 5.46693 4.37406 5.44663 4.35389L1.8283 0.735552C1.753 0.660181 1.66357 0.600389 1.56515 0.559594C1.46672 0.5188 1.36122 0.497803 1.25468 0.497803C1.14813 0.497803 1.04263 0.5188 0.944204 0.559594C0.845778 0.600389 0.756357 0.660181 0.681051 0.735552L0.679967 0.736636C0.527879 0.888795 0.442442 1.09512 0.442442 1.31026C0.442442 1.5254 0.527879 1.73173 0.679967 1.88389L5.14005 6.34397C5.24177 6.44525 5.37947 6.50211 5.52301 6.50211C5.66655 6.50211 5.80425 6.44525 5.90597 6.34397L10.3661 1.88389C10.5181 1.73173 10.6036 1.5254 10.6036 1.31026C10.6036 1.09512 10.5181 0.888795 10.3661 0.736636L10.365 0.735552Z" fill="black"/>
</svg>
